Linear Regression
…
# Create a recipe
recipe  %>% 
  prep() %>% 
  juice()

## # A tibble: 76 × 6
##    real_price real_local_tax real_sales_tax real_income_percapita packs year_X…¹
##         <dbl>          <dbl>          <dbl>                 <dbl> <dbl>    <dbl>
##  1       4.56           3.26           3.39                  2.41  4.49        0
##  2       4.87           3.76           3.89                  2.61  4.28        1
##  3       4.93           3.69           3.89                  2.78  4.04        1
##  4       4.70           3.36           3.36                  2.79  4.41        1
##  5       4.96           3.88           4.04                  3.04  4.38        1
##  6       4.87           3.80           3.95                  2.82  4.42        1
##  7       4.74           3.45           3.61                  2.66  4.49        1
##  8       4.96           3.90           4.03                  2.91  4.34        1
##  9       5.06           4.17           4.30                  2.76  4.40        1
## 10       4.97           3.86           4.04                  2.78  4.42        1
## # … with 66 more rows, and abbreviated variable name ¹​year_X1995
…
