La Red del Sistema de Transporte Metro
…
# Crea un objeto tbl_graph
red = tbl_graph(
  nodes = nodos,
  edges = as_tibble(ejes),
  directed = FALSE
)

# Luce así
print(red)

## # A tbl_graph: 163 nodes and 183 edges
## #
## # An undirected simple graph with 1 component
## #
## # A tibble: 163 × 3
##   NOMBRE                n             geometry
##   <chr>             <int>          <POINT [°]>
## 1 Acatitla              1 (-99.00567 19.36472)
## 2 Aculco                1  (-99.1077 19.37321)
## 3 Agrícola Oriental     1 (-99.06957 19.40462)
## 4 Allende               1 (-99.13687 19.43556)
## 5 Apatlaco              1  (-99.10949 19.3791)
## 6 Aquiles Serdán        1 (-99.19535 19.49064)
## # … with 157 more rows
## #
## # A tibble: 183 × 3
##    from    to                                      eje
##   <int> <int>                         <LINESTRING [°]>
## 1   107   162  (-99.0733 19.41552, -99.08229 19.41192)
## 2    58   162 (-99.08229 19.41192, -99.09021 19.41648)
## 3    17    58 (-99.09021 19.41648, -99.09626 19.41994)
## # … with 180 more rows
…
# Luce así
print(red)

## # A tbl_graph: 163 nodes and 183 edges
## #
## # An undirected simple graph with 1 component
## #
## # A tibble: 163 × 7
##   NOMBRE             n             geometry vecinos importancia betwee…¹ cerca…²
##   <chr>          <int>          <POINT [°]>   <dbl>       <dbl>    <dbl>   <dbl>
## 1 Acatitla           1 (-99.00567 19.36472)       2           2     477  3.86e-4
## 2 Aculco             1  (-99.1077 19.37321)       2           2    1579. 5.66e-4
## 3 Agrícola Orie…     1 (-99.06957 19.40462)       2           2    1232  5.45e-4
## 4 Allende            1 (-99.13687 19.43556)       2           2     272. 6.62e-4
## 5 Apatlaco           1  (-99.10949 19.3791)       2           2    1663. 5.94e-4
## 6 Aquiles Serdán     1 (-99.19535 19.49064)       2           2     337. 4.28e-4
## # … with 157 more rows, and abbreviated variable names ¹​betweenness, ²​cercania
## #
## # A tibble: 183 × 5
##    from    to                                      eje longitud betweenness
##   <int> <int>                         <LINESTRING [°]>      [m]       <dbl>
## 1   107   162  (-99.0733 19.41552, -99.08229 19.41192)    1024.         581
## 2    58   162 (-99.08229 19.41192, -99.09021 19.41648)     973.         579
## 3    17    58 (-99.09021 19.41648, -99.09626 19.41994)     742.         681
## # … with 180 more rows
…
