Flujo para multiples modelos
…
Podemos analizar los resultados obtenidos con las siguientes
funciones

# Ordena de mejor a peor modelo
rank_results(diabetes_workflow, rank_metric = "roc_auc")

## # A tibble: 100 × 9
##    wflow_id      .config         .metric  mean std_err     n prepr…¹ model  rank
##    <chr>         <chr>           <chr>   <dbl>   <dbl> <int> <chr>   <chr> <int>
##  1 receta_bosque Preprocessor1_… accura… 0.951 0.00730    25 recipe  rand…     1
##  2 receta_bosque Preprocessor1_… roc_auc 0.996 0.00168    25 recipe  rand…     1
##  3 receta_bosque Preprocessor1_… accura… 0.950 0.00737    25 recipe  rand…     2
##  4 receta_bosque Preprocessor1_… roc_auc 0.996 0.00195    25 recipe  rand…     2
##  5 receta_bosque Preprocessor1_… accura… 0.950 0.00780    25 recipe  rand…     3
##  6 receta_bosque Preprocessor1_… roc_auc 0.995 0.00210    25 recipe  rand…     3
##  7 receta_bosque Preprocessor1_… accura… 0.953 0.00743    25 recipe  rand…     4
##  8 receta_bosque Preprocessor1_… roc_auc 0.994 0.00244    25 recipe  rand…     4
##  9 receta_bosque Preprocessor1_… accura… 0.946 0.00865    25 recipe  rand…     5
## 10 receta_bosque Preprocessor1_… roc_auc 0.994 0.00254    25 recipe  rand…     5
## # … with 90 more rows, and abbreviated variable name ¹​preprocessor
…
